﻿B4U00075186,85.71
B4U00096391,85.71
B4U00122555,85.71
B4U00126874,85.71
B4U00097008,85.71
B4U00053726,85.71
B4U00040325,85.71
B4U00097327,85.71
B4U00102192,85.71
B4U00077429,85.71
B4U00029718,85.71
B4U00088715,85.71
B4U00111481,85.71
B4U00139780,85.71
B4U00059814,85.71
B4U0008648,85.71
B4U00074763,85.71
B4U00031110,85.71
B4U00059992,85.71
B4U00076911,85.71
B4U00059954,85.71
B4U00107663,85.71
B4U00086635,85.71
B4U00074819,85.71
B4U00030841,85.71
B4U00026682,85.71
B4U00133094,85.71
B4U00109338,85.71
B4U00060323,85.71
B4U00031988,85.71
B4U00121616,85.71
B4U00121402,85.71
B4U00076596,85.71
B4U00039819,85.71
B4U00031177,85.71
B4U00142666,85.71
B4U00015444,85.71
B4U00069359,85.71
B4U00089260,85.71
B4U00069015,85.71
B4U00044855,85.71
B4U00024823,85.71
B4U00028777,85.71
B4U00032538,85.71
B4U00040418,85.71
B4U00019484,85.71
B4U00036724,85.71
B4U00110357,85.71
B4U00051042,85.71
B4U00103374,85.71
B4U00069049,85.71
B4U00059647,85.71
B4U00117671,85.71
B4U00045476,85.71
B4U00017380,85.71
B4U00078861,85.71
B4U00067334,85.71
B4U00019873,85.71
B4U00015091,85.71
B4U00121832,85.71
B4U00090842,85.71
B4U00099481,85.71
B4U00034168,85.71
B4U00139542,85.71
B4U00021003,85.71
B4U00074810,85.71
B4U00087323,85.71
B4U00026264,85.71
B4U00125478,85.71
B4U00074750,85.71
B4U00067691,85.71
B4U00021666,85.71
B4U00030277,85.71
B4U00058491,85.71
B4U00118593,85.71
B4U00118604,85.71
B4U00020091,85.71
B4U00017236,85.71
B4U00036334,85.71
B4U00041126,85.71
B4U00073724,85.71
B4U00088195,85.71
B4U00019926,85.71
B4U00116790,85.71
B4U00098119,85.71
B4U00040850,85.71
B4U00056175,85.71
B4U00121201,85.71
B4U00050610,85.71
B4U00097057,85.71
B4U00123164,85.71
B4U00087212,85.71
B4U00018790,85.71
B4U00122908,85.71
B4U00123138,85.71
B4U00050197,85.71
B4U00121639,85.71
B4U00024627,85.71
B4U00079536,85.71
B4U00040482,85.71
B4U00043591,85.71
B4U00010529,85.71