﻿B4U00047425,57.14
B4U00049959,57.14
B4U00054961,57.14
B4U00080051,57.14
B4U00088752,57.14
B4U00090525,57.14
B4U00127155,57.14
B4U00136311,57.14
B4U00110108,57.14
B4U00058322,57.14
B4U00058150,57.14
B4U00089729,57.14
B4U00058764,57.14
B4U00144992,57.14
B4U00079971,57.14
B4U00044384,57.14
B4U00048073,57.14
B4U00075396,57.14
B4U00089091,57.14
B4U00102294,57.14
B4U00104928,57.14
B4U00067299,57.14
B4U00076029,57.14
B4U00123221,57.14
B4U00042088,57.14
B4U00047680,57.14
B4U00133198,57.14
B4U00029384,57.14
B4U00135013,57.14
B4U00025434,57.14
B4U00061090,57.14
B4U00136591,57.14
B4U00085675,57.14
B4U00104144,57.14
B4U00107256,57.14
B4U00045321,57.14
B4U00050343,57.14
B4U00038385,57.14
B4U00064450,57.14
B4U00035995,57.14
B4U00106822,57.14
B4U00099580,57.14
B4U00043492,57.14
B4U00091890,57.14
B4U00090264,57.14
B4U00025573,57.14
B4U00032813,57.14
B4U00098454,57.14
B4U00117667,57.14
B4U00090161,57.14
B4U00095321,57.14
B4U00121020,57.14
B4U00024824,57.14
B4U00052579,57.14
B4U00045360,57.14
B4U00056054,57.14
B4U00095553,57.14
B4U00068720,57.14
B4U00138360,57.14
B4U00055425,57.14
B4U00037214,57.14
B4U00069589,57.14
B4U00094608,57.14
B4U00049389,57.14
B4U00019242,57.14
B4U00100001,57.14
B4U00066079,57.14
B4U00035604,57.14
B4U00046830,57.14
B4U00074912,57.14
B4U00026061,57.14
B4U00051266,57.14
B4U00047825,57.14
B4U00088981,57.14
B4U00034220,57.14
B4U00088078,57.14
B4U00126747,57.14
B4U00095480,57.14
B4U00068701,57.14
B4U00032819,57.14
B4U00068418,57.14
B4U00070518,57.14
B4U00085420,57.14
B4U00117095,57.14
B4U00082902,57.14
B4U00120764,57.14
B4U00056097,57.14
B4U00053226,57.14
B4U00025885,57.14
B4U00110375,57.14
B4U00034699,57.14
B4U00085671,57.14
B4U00103135,57.14
B4U00055936,57.14
B4U00042067,57.14
B4U00111361,57.14
B4U00098796,57.14
B4U00025443,57.14
B4U00043672,57.14
B4U00032276,57.14
B4U00017751,57.14
B4U0008851,57.14
B4U00032451,57.14
B4U00053725,57.14
B4U00059935,57.14
B4U00079109,57.14
B4U00042018,57.14
B4U00092912,57.14
B4U00068289,57.14
B4U00075374,57.14
B4U00020839,57.14
B4U00070824,57.14
B4U00075974,57.14
B4U00083163,57.14
B4U00015244,57.14
B4U00043744,57.14
B4U00069480,57.14
B4U00116649,57.14
B4U00021905,57.14
B4U00039706,57.14
B4U00082208,57.14
B4U00065864,57.14
B4U00048802,57.14
B4U00085383,57.14
B4U00117997,57.14
B4U00050394,57.14
B4U00104108,57.14
B4U00062322,57.14
B4U00113707,57.14
B4U00045787,57.14
B4U00034458,57.14
B4U00103179,57.14
B4U00048698,57.14
B4U0008063,57.14
B4U00019682,57.14
B4U00116898,57.14
B4U00014679,57.14
B4U00085217,57.14
B4U00130576,57.14
B4U00032336,57.14
B4U00028594,57.14
B4U00026182,57.14
B4U00066072,57.14
B4U00117476,57.14
B4U00095408,57.14
B4U00058166,57.14
B4U00060789,57.14
B4U00117185,57.14
B4U00078176,57.14
B4U00047812,57.14
B4U00070449,57.14
B4U00080310,57.14
B4U00097464,57.14
B4U00022103,57.14
B4U00124345,57.14
B4U00120982,57.14
B4U00033292,57.14
B4U00125135,57.14
B4U00105572,57.14
B4U00059158,57.14
B4U00061920,57.14
B4U00032953,57.14
B4U00075967,57.14
B4U00022219,57.14
B4U00055621,57.14
B4U00086630,57.14
B4U00020622,57.14
B4U00125721,57.14
B4U00030082,57.14
B4U00020736,57.14
B4U00025015,57.14
B4U00117779,57.14
B4U00124092,57.14
B4U00030225,57.14
B4U00127492,57.14
B4U0009816,57.14
B4U00037683,57.14
B4U00075945,57.14
B4U00013313,57.14
B4U00103094,57.14
B4U00021410,57.14
B4U0009347,57.14
B4U00069379,57.14
B4U00051582,57.14
B4U00087377,57.14
B4U00032064,57.14
B4U0009916,57.14
B4U00097935,57.14
B4U00026148,57.14
B4U00070488,57.14
B4U00117979,57.14
B4U00061371,57.14
B4U00061831,57.14
B4U00065143,57.14
B4U00068824,57.14
B4U00100551,57.14
B4U00085840,57.14
B4U00127137,57.14
B4U00127876,57.14
B4U00035054,57.14
B4U00053033,57.14
B4U00097560,57.14
B4U00058223,57.14
B4U00052564,57.14
B4U00102260,57.14
B4U00019767,57.14
B4U00072877,57.14
B4U00064025,57.14
B4U00032730,57.14
B4U00088959,57.14
B4U00090061,57.14
B4U00107634,57.14
B4U00044107,57.14
B4U00054701,57.14
B4U00065835,57.14
B4U00021284,57.14
B4U00063111,57.14
B4U00077811,57.14
B4U00055625,57.14
B4U00043754,57.14
B4U00062779,57.14
B4U00076193,57.14
B4U00089894,57.14
B4U00061998,57.14
B4U00037655,57.14
B4U00089061,57.14
B4U00060449,57.14
B4U00059899,57.14
B4U00028792,57.14
B4U00019529,57.14
B4U00072149,57.14
B4U00123666,57.14
B4U00123043,57.14
B4U00082176,57.14
B4U00063663,57.14
B4U00118367,57.14
B4U00116129,57.14
B4U00044497,57.14
B4U00028321,57.14
B4U00105213,57.14
B4U00036671,57.14
B4U00131433,57.14
B4U00087905,57.14
B4U00015611,57.14
B4U00118050,57.14
B4U00055871,57.14
B4U00043749,57.14
B4U00115071,57.14
B4U00054099,57.14
B4U00018625,57.14
B4U00126792,57.14
B4U00127073,57.14
B4U00018572,57.14
B4U00112595,57.14
B4U00142202,57.14
B4U00091436,57.14
B4U00047351,57.14
B4U00051271,57.14
B4U00069159,57.14
B4U00100295,57.14
B4U00123284,57.14
B4U00128703,57.14
B4U00081461,57.14
B4U00043786,57.14
B4U00036648,57.14
B4U00042334,57.14
B4U00055194,57.14
B4U00055472,57.14
B4U00073522,57.14
B4U00098062,57.14
B4U00106534,57.14
B4U00111278,57.14
B4U00104430,57.14
B4U00123662,57.14
B4U00107547,57.14
B4U00061545,57.14
B4U00112823,57.14
B4U00034938,57.14
B4U00055585,57.14
B4U00077796,57.14
B4U00074277,57.14
B4U00100059,57.14
B4U00121979,57.14
B4U00055919,57.14
B4U00116586,57.14
B4U00134490,57.14
B4U00120009,57.14
B4U00105931,57.14
B4U00083939,57.14
B4U00058853,57.14
B4U00101866,57.14
B4U00126412,57.14
B4U00116086,57.14
B4U00100095,57.14
B4U00057837,57.14
B4U00133568,57.14
B4U0006972,57.14
B4U00033005,57.14
B4U00101839,57.14
B4U00116314,57.14
B4U00097372,57.14
B4U00102730,57.14
B4U00019632,57.14
B4U00121899,57.14
B4U00070377,57.14
B4U00110754,57.14
B4U00026058,57.14
B4U00046908,57.14
B4U00058242,57.14
B4U00028834,57.14
B4U0009250,57.14
B4U00055736,57.14
B4U00021862,57.14
B4U00125182,57.14
B4U00118410,57.14
B4U00126192,57.14
B4U00080135,57.14
B4U00099767,57.14
B4U00125732,57.14
B4U00133780,57.14
B4U00094199,57.14
B4U00126732,57.14
B4U00022396,57.14
B4U00112373,57.14
B4U00018456,57.14
B4U00037476,57.14
B4U00114946,57.14
B4U00080050,57.14
B4U00067012,57.14
B4U00071965,57.14
B4U00078061,57.14
B4U00034009,57.14
B4U00027468,57.14
B4U00119368,57.14
B4U00044061,57.14
B4U0009335,57.14
B4U00046349,57.14
B4U00129631,57.14
B4U00013763,57.14
B4U00027881,57.14
B4U00057083,57.14
B4U00082980,57.14
B4U00112090,57.14
B4U00133079,57.14
B4U00029914,57.14
B4U00140494,57.14
B4U00057511,57.14
B4U00080681,57.14
B4U00025591,57.14
B4U00042912,57.14
B4U00053200,57.14
B4U00072017,57.14
B4U00030179,57.14
B4U00027330,57.14
B4U00012476,57.14
B4U00018075,57.14
B4U00025629,57.14
B4U00131607,57.14
B4U00079280,57.14
B4U00039118,57.14
B4U00129918,57.14
B4U00087350,57.14
B4U00091866,57.14
B4U00018469,57.14
B4U00080256,57.14
B4U00076738,57.14
B4U00042514,57.14
B4U00089650,57.14
B4U00026447,57.14
B4U00061190,57.14
B4U00053886,57.14
B4U00053405,57.14
B4U00060300,57.14
B4U00129227,57.14
B4U00036505,57.14
B4U00084161,57.14
B4U00031420,57.14
B4U00089511,57.14
B4U00037828,57.14
B4U00024952,57.14
B4U00058240,57.14
B4U00061690,57.14
B4U00039798,57.14
B4U00135845,57.14
B4U00047415,57.14
B4U00075352,57.14
B4U00099695,57.14
B4U00056710,57.14
B4U00080770,57.14
B4U00040497,57.14
B4U00065301,57.14
B4U00091385,57.14
B4U00070276,57.14
B4U00086676,57.14
B4U00087936,57.14
B4U00048610,57.14
B4U00044548,57.14
B4U00025737,57.14
B4U00061700,57.14
B4U00048752,57.14
B4U00030046,57.14
B4U00039293,57.14
B4U00044869,57.14
B4U00031823,57.14
B4U00029995,57.14
B4U00070294,57.14
B4U00049966,57.14
B4U00062752,57.14
B4U00137507,57.14
B4U00079477,57.14
B4U00088962,57.14
B4U00110624,57.14
B4U00078763,57.14
B4U00046751,57.14
B4U00116298,57.14
B4U00024461,57.14
B4U00020645,57.14
B4U00042868,57.14
B4U00119883,57.14
B4U00019741,57.14
B4U00063154,57.14
B4U00115849,57.14
B4U00094077,57.14
B4U00021226,57.14
B4U00069661,57.14
B4U00083541,57.14
B4U00128530,57.14
B4U00013793,57.14
B4U00067320,57.14
B4U00033932,57.14
B4U00030845,57.14
B4U00016056,57.14
B4U00079449,57.14
B4U00034310,57.14
B4U00094948,57.14
B4U00071499,57.14
B4U00055215,57.14
B4U00054901,57.14
B4U00026287,57.14
B4U00043122,57.14
B4U00053415,57.14
B4U00145318,57.14
B4U00039876,57.14
B4U00062319,57.14
B4U00071031,57.14
B4U00024112,57.14
B4U00122164,57.14
B4U00151728,57.14
B4U00055777,57.14
B4U00116204,57.14
B4U00040588,57.14
B4U00032673,57.14
B4U00072830,57.14
B4U00097960,57.14
B4U00126166,57.14
B4U00065371,57.14
B4U00060512,57.14
B4U00015381,57.14
B4U00019520,57.14
B4U00072439,57.14
B4U00097677,57.14
B4U00061053,57.14
B4U00025572,57.14
B4U00077200,57.14
B4U00123766,57.14
B4U00044416,57.14
B4U00090538,57.14
B4U00061488,57.14
B4U000625,57.14
B4U00050282,57.14
B4U00082222,57.14
B4U00074704,57.14
B4U00066831,57.14
B4U00080114,57.14
B4U00063975,57.14
B4U00074455,57.14
B4U00090194,57.14
B4U0003688,57.14
B4U00075605,57.14
B4U00051041,57.14
B4U00109433,57.14
B4U00084983,57.14
B4U00061719,57.14
B4U00083522,57.14
B4U00016861,57.14
B4U00119896,57.14
B4U00078628,57.14
B4U00055112,57.14
B4U00053921,57.14
B4U00151928,57.14
B4U00041543,57.14
B4U0008905,57.14
B4U00082849,57.14
B4U00076689,57.14
B4U00026337,57.14
B4U00064054,57.14
B4U00031670,57.14
B4U00068111,57.14
B4U00039353,57.14